<?xml version="1.0" encoding="UTF-8"?>
<session version="1.0">
<refactoring comment="Delete resource &apos;Exercicio-01&apos;" deleteContents="true" description="Delete resource &apos;Exercicio-01&apos;" element1="/Exercicio-01" flags="7" id="org.eclipse.ltk.core.refactoring.delete.resources" resources="1" stamp="1551974006903"/>
</session>